^C:\USERS\KORR\DOCUMENTS\D2\AO\COMPILE\CORE\TRUNK\AWESOM-O\SOCKS.CPP
/c /I"C:\Program Files\boost_1_41_0" /I"C:\Users\KOrr\Documents\D2\AO\compile\core\trunk\Awesom-O\\lua-5.1.4\include" /I"C:\Users\KOrr\Documents\D2\AO\compile\core\trunk\Awesom-O\\tolua++-1.0.93\src" /nologo /W1 /WX- /Od /Oi /Oy- /GL /D _MBCS /Gm- /EHa /MD /GS /Gy /fp:precise /Zc:wchar_t /Zc:forScope /Fo"Release\\" /Fd"Release\vc100.pdb" /Gd /TP /analyze- /errorReport:prompt C:\USERS\KORR\DOCUMENTS\D2\AO\COMPILE\CORE\TRUNK\AWESOM-O\SOCKS.CPP
^C:\USERS\KORR\DOCUMENTS\D2\AO\COMPILE\CORE\TRUNK\AWESOM-O\SOCKSMANAGER.CPP
/c /I"C:\Program Files\boost_1_41_0" /I"C:\Users\KOrr\Documents\D2\AO\compile\core\trunk\Awesom-O\\lua-5.1.4\include" /I"C:\Users\KOrr\Documents\D2\AO\compile\core\trunk\Awesom-O\\tolua++-1.0.93\src" /nologo /W1 /WX- /Od /Oi /Oy- /GL /D _MBCS /Gm- /EHa /MD /GS /Gy /fp:precise /Zc:wchar_t /Zc:forScope /Fo"Release\\" /Fd"Release\vc100.pdb" /Gd /TP /analyze- /errorReport:prompt C:\USERS\KORR\DOCUMENTS\D2\AO\COMPILE\CORE\TRUNK\AWESOM-O\SOCKSMANAGER.CPP
^C:\USERS\KORR\DOCUMENTS\D2\AO\COMPILE\CORE\TRUNK\AWESOM-O\CONNECTION.CPP
/c /I"C:\Program Files\boost_1_41_0" /I"C:\Users\KOrr\Documents\D2\AO\compile\core\trunk\Awesom-O\\lua-5.1.4\include" /I"C:\Users\KOrr\Documents\D2\AO\compile\core\trunk\Awesom-O\\tolua++-1.0.93\src" /nologo /W1 /WX- /Od /Oi /Oy- /GL /D _MBCS /Gm- /EHa /MD /GS /Gy /fp:precise /Zc:wchar_t /Zc:forScope /Fo"Release\\" /Fd"Release\vc100.pdb" /Gd /TP /analyze- /errorReport:prompt C:\USERS\KORR\DOCUMENTS\D2\AO\COMPILE\CORE\TRUNK\AWESOM-O\CONNECTION.CPP
^C:\USERS\KORR\DOCUMENTS\D2\AO\COMPILE\CORE\TRUNK\AWESOM-O\COMPRESSION.CPP
/c /I"C:\Program Files\boost_1_41_0" /I"C:\Users\KOrr\Documents\D2\AO\compile\core\trunk\Awesom-O\\lua-5.1.4\include" /I"C:\Users\KOrr\Documents\D2\AO\compile\core\trunk\Awesom-O\\tolua++-1.0.93\src" /nologo /W1 /WX- /Od /Oi /Oy- /GL /D _MBCS /Gm- /EHa /MD /GS /Gy /fp:precise /Zc:wchar_t /Zc:forScope /Fo"Release\\" /Fd"Release\vc100.pdb" /Gd /TP /analyze- /errorReport:prompt C:\USERS\KORR\DOCUMENTS\D2\AO\COMPILE\CORE\TRUNK\AWESOM-O\COMPRESSION.CPP
^C:\USERS\KORR\DOCUMENTS\D2\AO\COMPILE\CORE\TRUNK\AWESOM-O\PROXY.CPP
/c /I"C:\Program Files\boost_1_41_0" /I"C:\Users\KOrr\Documents\D2\AO\compile\core\trunk\Awesom-O\\lua-5.1.4\include" /I"C:\Users\KOrr\Documents\D2\AO\compile\core\trunk\Awesom-O\\tolua++-1.0.93\src" /nologo /W1 /WX- /Od /Oi /Oy- /GL /D _MBCS /Gm- /EHa /MD /GS /Gy /fp:precise /Zc:wchar_t /Zc:forScope /Fo"Release\\" /Fd"Release\vc100.pdb" /Gd /TP /analyze- /errorReport:prompt C:\USERS\KORR\DOCUMENTS\D2\AO\COMPILE\CORE\TRUNK\AWESOM-O\PROXY.CPP
^C:\USERS\KORR\DOCUMENTS\D2\AO\COMPILE\CORE\TRUNK\AWESOM-O\CRITICALSECTION.CPP
/c /I"C:\Program Files\boost_1_41_0" /I"C:\Users\KOrr\Documents\D2\AO\compile\core\trunk\Awesom-O\\lua-5.1.4\include" /I"C:\Users\KOrr\Documents\D2\AO\compile\core\trunk\Awesom-O\\tolua++-1.0.93\src" /nologo /W1 /WX- /Od /Oi /Oy- /GL /D _MBCS /Gm- /EHa /MD /GS /Gy /fp:precise /Zc:wchar_t /Zc:forScope /Fo"Release\\" /Fd"Release\vc100.pdb" /Gd /TP /analyze- /errorReport:prompt C:\USERS\KORR\DOCUMENTS\D2\AO\COMPILE\CORE\TRUNK\AWESOM-O\CRITICALSECTION.CPP
^C:\USERS\KORR\DOCUMENTS\D2\AO\COMPILE\CORE\TRUNK\AWESOM-O\GC.CPP
/c /I"C:\Program Files\boost_1_41_0" /I"C:\Users\KOrr\Documents\D2\AO\compile\core\trunk\Awesom-O\\lua-5.1.4\include" /I"C:\Users\KOrr\Documents\D2\AO\compile\core\trunk\Awesom-O\\tolua++-1.0.93\src" /nologo /W1 /WX- /Od /Oi /Oy- /GL /D _MBCS /Gm- /EHa /MD /GS /Gy /fp:precise /Zc:wchar_t /Zc:forScope /Fo"Release\\" /Fd"Release\vc100.pdb" /Gd /TP /analyze- /errorReport:prompt C:\USERS\KORR\DOCUMENTS\D2\AO\COMPILE\CORE\TRUNK\AWESOM-O\GC.CPP
^C:\USERS\KORR\DOCUMENTS\D2\AO\COMPILE\CORE\TRUNK\AWESOM-O\GS.CPP
/c /I"C:\Program Files\boost_1_41_0" /I"C:\Users\KOrr\Documents\D2\AO\compile\core\trunk\Awesom-O\\lua-5.1.4\include" /I"C:\Users\KOrr\Documents\D2\AO\compile\core\trunk\Awesom-O\\tolua++-1.0.93\src" /nologo /W1 /WX- /Od /Oi /Oy- /GL /D _MBCS /Gm- /EHa /MD /GS /Gy /fp:precise /Zc:wchar_t /Zc:forScope /Fo"Release\\" /Fd"Release\vc100.pdb" /Gd /TP /analyze- /errorReport:prompt C:\USERS\KORR\DOCUMENTS\D2\AO\COMPILE\CORE\TRUNK\AWESOM-O\GS.CPP
^C:\USERS\KORR\DOCUMENTS\D2\AO\COMPILE\CORE\TRUNK\AWESOM-O\ONRELAYDATATOSERVER.CPP
/c /I"C:\Program Files\boost_1_41_0" /I"C:\Users\KOrr\Documents\D2\AO\compile\core\trunk\Awesom-O\\lua-5.1.4\include" /I"C:\Users\KOrr\Documents\D2\AO\compile\core\trunk\Awesom-O\\tolua++-1.0.93\src" /nologo /W1 /WX- /Od /Oi /Oy- /GL /D _MBCS /Gm- /EHa /MD /GS /Gy /fp:precise /Zc:wchar_t /Zc:forScope /Fo"Release\\" /Fd"Release\vc100.pdb" /Gd /TP /analyze- /errorReport:prompt C:\USERS\KORR\DOCUMENTS\D2\AO\COMPILE\CORE\TRUNK\AWESOM-O\ONRELAYDATATOSERVER.CPP
^C:\USERS\KORR\DOCUMENTS\D2\AO\COMPILE\CORE\TRUNK\AWESOM-O\PROCESSITEM.CPP
/c /I"C:\Program Files\boost_1_41_0" /I"C:\Users\KOrr\Documents\D2\AO\compile\core\trunk\Awesom-O\\lua-5.1.4\include" /I"C:\Users\KOrr\Documents\D2\AO\compile\core\trunk\Awesom-O\\tolua++-1.0.93\src" /nologo /W1 /WX- /Od /Oi /Oy- /GL /D _MBCS /Gm- /EHa /MD /GS /Gy /fp:precise /Zc:wchar_t /Zc:forScope /Fo"Release\\" /Fd"Release\vc100.pdb" /Gd /TP /analyze- /errorReport:prompt C:\USERS\KORR\DOCUMENTS\D2\AO\COMPILE\CORE\TRUNK\AWESOM-O\PROCESSITEM.CPP
^C:\USERS\KORR\DOCUMENTS\D2\AO\COMPILE\CORE\TRUNK\AWESOM-O\THREAD.CPP
/c /I"C:\Program Files\boost_1_41_0" /I"C:\Users\KOrr\Documents\D2\AO\compile\core\trunk\Awesom-O\\lua-5.1.4\include" /I"C:\Users\KOrr\Documents\D2\AO\compile\core\trunk\Awesom-O\\tolua++-1.0.93\src" /nologo /W1 /WX- /Od /Oi /Oy- /GL /D _MBCS /Gm- /EHa /MD /GS /Gy /fp:precise /Zc:wchar_t /Zc:forScope /Fo"Release\\" /Fd"Release\vc100.pdb" /Gd /TP /analyze- /errorReport:prompt C:\USERS\KORR\DOCUMENTS\D2\AO\COMPILE\CORE\TRUNK\AWESOM-O\THREAD.CPP
^C:\USERS\KORR\DOCUMENTS\D2\AO\COMPILE\CORE\TRUNK\AWESOM-O\CONTROLLER.CPP
/c /I"C:\Program Files\boost_1_41_0" /I"C:\Users\KOrr\Documents\D2\AO\compile\core\trunk\Awesom-O\\lua-5.1.4\include" /I"C:\Users\KOrr\Documents\D2\AO\compile\core\trunk\Awesom-O\\tolua++-1.0.93\src" /nologo /W1 /WX- /Od /Oi /Oy- /GL /D _MBCS /Gm- /EHa /MD /GS /Gy /fp:precise /Zc:wchar_t /Zc:forScope /Fo"Release\\" /Fd"Release\vc100.pdb" /Gd /TP /analyze- /errorReport:prompt C:\USERS\KORR\DOCUMENTS\D2\AO\COMPILE\CORE\TRUNK\AWESOM-O\CONTROLLER.CPP
^C:\USERS\KORR\DOCUMENTS\D2\AO\COMPILE\CORE\TRUNK\AWESOM-O\CDKEY.CPP
/c /I"C:\Program Files\boost_1_41_0" /I"C:\Users\KOrr\Documents\D2\AO\compile\core\trunk\Awesom-O\\lua-5.1.4\include" /I"C:\Users\KOrr\Documents\D2\AO\compile\core\trunk\Awesom-O\\tolua++-1.0.93\src" /nologo /W1 /WX- /Od /Oi /Oy- /GL /D _MBCS /Gm- /EHa /MD /GS /Gy /fp:precise /Zc:wchar_t /Zc:forScope /Fo"Release\\" /Fd"Release\vc100.pdb" /Gd /TP /analyze- /errorReport:prompt C:\USERS\KORR\DOCUMENTS\D2\AO\COMPILE\CORE\TRUNK\AWESOM-O\CDKEY.CPP
^C:\USERS\KORR\DOCUMENTS\D2\AO\COMPILE\CORE\TRUNK\AWESOM-O\CDKEYMANAGER.CPP
/c /I"C:\Program Files\boost_1_41_0" /I"C:\Users\KOrr\Documents\D2\AO\compile\core\trunk\Awesom-O\\lua-5.1.4\include" /I"C:\Users\KOrr\Documents\D2\AO\compile\core\trunk\Awesom-O\\tolua++-1.0.93\src" /nologo /W1 /WX- /Od /Oi /Oy- /GL /D _MBCS /Gm- /EHa /MD /GS /Gy /fp:precise /Zc:wchar_t /Zc:forScope /Fo"Release\\" /Fd"Release\vc100.pdb" /Gd /TP /analyze- /errorReport:prompt C:\USERS\KORR\DOCUMENTS\D2\AO\COMPILE\CORE\TRUNK\AWESOM-O\CDKEYMANAGER.CPP
^C:\USERS\KORR\DOCUMENTS\D2\AO\COMPILE\CORE\TRUNK\AWESOM-O\LOG.CPP
/c /I"C:\Program Files\boost_1_41_0" /I"C:\Users\KOrr\Documents\D2\AO\compile\core\trunk\Awesom-O\\lua-5.1.4\include" /I"C:\Users\KOrr\Documents\D2\AO\compile\core\trunk\Awesom-O\\tolua++-1.0.93\src" /nologo /W1 /WX- /Od /Oi /Oy- /GL /D _MBCS /Gm- /EHa /MD /GS /Gy /fp:precise /Zc:wchar_t /Zc:forScope /Fo"Release\\" /Fd"Release\vc100.pdb" /Gd /TP /analyze- /errorReport:prompt C:\USERS\KORR\DOCUMENTS\D2\AO\COMPILE\CORE\TRUNK\AWESOM-O\LOG.CPP
^C:\USERS\KORR\DOCUMENTS\D2\AO\COMPILE\CORE\TRUNK\AWESOM-O\D2DATA\BASELEVEL.CPP
/c /I"C:\Program Files\boost_1_41_0" /I"C:\Users\KOrr\Documents\D2\AO\compile\core\trunk\Awesom-O\\lua-5.1.4\include" /I"C:\Users\KOrr\Documents\D2\AO\compile\core\trunk\Awesom-O\\tolua++-1.0.93\src" /nologo /W1 /WX- /Od /Oi /Oy- /GL /D _MBCS /Gm- /EHa /MD /GS /Gy /fp:precise /Zc:wchar_t /Zc:forScope /Fo"Release\\" /Fd"Release\vc100.pdb" /Gd /TP /analyze- /errorReport:prompt C:\USERS\KORR\DOCUMENTS\D2\AO\COMPILE\CORE\TRUNK\AWESOM-O\D2DATA\BASELEVEL.CPP
^C:\USERS\KORR\DOCUMENTS\D2\AO\COMPILE\CORE\TRUNK\AWESOM-O\D2DATA\BASESTAT.CPP
/c /I"C:\Program Files\boost_1_41_0" /I"C:\Users\KOrr\Documents\D2\AO\compile\core\trunk\Awesom-O\\lua-5.1.4\include" /I"C:\Users\KOrr\Documents\D2\AO\compile\core\trunk\Awesom-O\\tolua++-1.0.93\src" /nologo /W1 /WX- /Od /Oi /Oy- /GL /D _MBCS /Gm- /EHa /MD /GS /Gy /fp:precise /Zc:wchar_t /Zc:forScope /Fo"Release\\" /Fd"Release\vc100.pdb" /Gd /TP /analyze- /errorReport:prompt C:\USERS\KORR\DOCUMENTS\D2\AO\COMPILE\CORE\TRUNK\AWESOM-O\D2DATA\BASESTAT.CPP
^C:\USERS\KORR\DOCUMENTS\D2\AO\COMPILE\CORE\TRUNK\AWESOM-O\D2DATA\ITEM\BASEARMOR.CPP
/c /I"C:\Program Files\boost_1_41_0" /I"C:\Users\KOrr\Documents\D2\AO\compile\core\trunk\Awesom-O\\lua-5.1.4\include" /I"C:\Users\KOrr\Documents\D2\AO\compile\core\trunk\Awesom-O\\tolua++-1.0.93\src" /nologo /W1 /WX- /Od /Oi /Oy- /GL /D _MBCS /Gm- /EHa /MD /GS /Gy /fp:precise /Zc:wchar_t /Zc:forScope /Fo"Release\\" /Fd"Release\vc100.pdb" /Gd /TP /analyze- /errorReport:prompt C:\USERS\KORR\DOCUMENTS\D2\AO\COMPILE\CORE\TRUNK\AWESOM-O\D2DATA\ITEM\BASEARMOR.CPP
^C:\USERS\KORR\DOCUMENTS\D2\AO\COMPILE\CORE\TRUNK\AWESOM-O\D2DATA\ITEM\BASEITEM.CPP
/c /I"C:\Program Files\boost_1_41_0" /I"C:\Users\KOrr\Documents\D2\AO\compile\core\trunk\Awesom-O\\lua-5.1.4\include" /I"C:\Users\KOrr\Documents\D2\AO\compile\core\trunk\Awesom-O\\tolua++-1.0.93\src" /nologo /W1 /WX- /Od /Oi /Oy- /GL /D _MBCS /Gm- /EHa /MD /GS /Gy /fp:precise /Zc:wchar_t /Zc:forScope /Fo"Release\\" /Fd"Release\vc100.pdb" /Gd /TP /analyze- /errorReport:prompt C:\USERS\KORR\DOCUMENTS\D2\AO\COMPILE\CORE\TRUNK\AWESOM-O\D2DATA\ITEM\BASEITEM.CPP
^C:\USERS\KORR\DOCUMENTS\D2\AO\COMPILE\CORE\TRUNK\AWESOM-O\D2DATA\ITEM\BASEITEMTYPE.CPP
/c /I"C:\Program Files\boost_1_41_0" /I"C:\Users\KOrr\Documents\D2\AO\compile\core\trunk\Awesom-O\\lua-5.1.4\include" /I"C:\Users\KOrr\Documents\D2\AO\compile\core\trunk\Awesom-O\\tolua++-1.0.93\src" /nologo /W1 /WX- /Od /Oi /Oy- /GL /D _MBCS /Gm- /EHa /MD /GS /Gy /fp:precise /Zc:wchar_t /Zc:forScope /Fo"Release\\" /Fd"Release\vc100.pdb" /Gd /TP /analyze- /errorReport:prompt C:\USERS\KORR\DOCUMENTS\D2\AO\COMPILE\CORE\TRUNK\AWESOM-O\D2DATA\ITEM\BASEITEMTYPE.CPP
^C:\USERS\KORR\DOCUMENTS\D2\AO\COMPILE\CORE\TRUNK\AWESOM-O\D2DATA\ITEM\BASEMISCITEM.CPP
/c /I"C:\Program Files\boost_1_41_0" /I"C:\Users\KOrr\Documents\D2\AO\compile\core\trunk\Awesom-O\\lua-5.1.4\include" /I"C:\Users\KOrr\Documents\D2\AO\compile\core\trunk\Awesom-O\\tolua++-1.0.93\src" /nologo /W1 /WX- /Od /Oi /Oy- /GL /D _MBCS /Gm- /EHa /MD /GS /Gy /fp:precise /Zc:wchar_t /Zc:forScope /Fo"Release\\" /Fd"Release\vc100.pdb" /Gd /TP /analyze- /errorReport:prompt C:\USERS\KORR\DOCUMENTS\D2\AO\COMPILE\CORE\TRUNK\AWESOM-O\D2DATA\ITEM\BASEMISCITEM.CPP
^C:\USERS\KORR\DOCUMENTS\D2\AO\COMPILE\CORE\TRUNK\AWESOM-O\D2DATA\ITEM\BASEPROPERTY.CPP
/c /I"C:\Program Files\boost_1_41_0" /I"C:\Users\KOrr\Documents\D2\AO\compile\core\trunk\Awesom-O\\lua-5.1.4\include" /I"C:\Users\KOrr\Documents\D2\AO\compile\core\trunk\Awesom-O\\tolua++-1.0.93\src" /nologo /W1 /WX- /Od /Oi /Oy- /GL /D _MBCS /Gm- /EHa /MD /GS /Gy /fp:precise /Zc:wchar_t /Zc:forScope /Fo"Release\\" /Fd"Release\vc100.pdb" /Gd /TP /analyze- /errorReport:prompt C:\USERS\KORR\DOCUMENTS\D2\AO\COMPILE\CORE\TRUNK\AWESOM-O\D2DATA\ITEM\BASEPROPERTY.CPP
^C:\USERS\KORR\DOCUMENTS\D2\AO\COMPILE\CORE\TRUNK\AWESOM-O\D2DATA\ITEM\BASERUNEWORD.CPP
/c /I"C:\Program Files\boost_1_41_0" /I"C:\Users\KOrr\Documents\D2\AO\compile\core\trunk\Awesom-O\\lua-5.1.4\include" /I"C:\Users\KOrr\Documents\D2\AO\compile\core\trunk\Awesom-O\\tolua++-1.0.93\src" /nologo /W1 /WX- /Od /Oi /Oy- /GL /D _MBCS /Gm- /EHa /MD /GS /Gy /fp:precise /Zc:wchar_t /Zc:forScope /Fo"Release\\" /Fd"Release\vc100.pdb" /Gd /TP /analyze- /errorReport:prompt C:\USERS\KORR\DOCUMENTS\D2\AO\COMPILE\CORE\TRUNK\AWESOM-O\D2DATA\ITEM\BASERUNEWORD.CPP
^C:\USERS\KORR\DOCUMENTS\D2\AO\COMPILE\CORE\TRUNK\AWESOM-O\D2DATA\ITEM\BASEWEAPON.CPP
/c /I"C:\Program Files\boost_1_41_0" /I"C:\Users\KOrr\Documents\D2\AO\compile\core\trunk\Awesom-O\\lua-5.1.4\include" /I"C:\Users\KOrr\Documents\D2\AO\compile\core\trunk\Awesom-O\\tolua++-1.0.93\src" /nologo /W1 /WX- /Od /Oi /Oy- /GL /D _MBCS /Gm- /EHa /MD /GS /Gy /fp:precise /Zc:wchar_t /Zc:forScope /Fo"Release\\" /Fd"Release\vc100.pdb" /Gd /TP /analyze- /errorReport:prompt C:\USERS\KORR\DOCUMENTS\D2\AO\COMPILE\CORE\TRUNK\AWESOM-O\D2DATA\ITEM\BASEWEAPON.CPP
^C:\USERS\KORR\DOCUMENTS\D2\AO\COMPILE\CORE\TRUNK\AWESOM-O\D2DATA\ITEM\ITEMAFFIX.CPP
/c /I"C:\Program Files\boost_1_41_0" /I"C:\Users\KOrr\Documents\D2\AO\compile\core\trunk\Awesom-O\\lua-5.1.4\include" /I"C:\Users\KOrr\Documents\D2\AO\compile\core\trunk\Awesom-O\\tolua++-1.0.93\src" /nologo /W1 /WX- /Od /Oi /Oy- /GL /D _MBCS /Gm- /EHa /MD /GS /Gy /fp:precise /Zc:wchar_t /Zc:forScope /Fo"Release\\" /Fd"Release\vc100.pdb" /Gd /TP /analyze- /errorReport:prompt C:\USERS\KORR\DOCUMENTS\D2\AO\COMPILE\CORE\TRUNK\AWESOM-O\D2DATA\ITEM\ITEMAFFIX.CPP
^C:\USERS\KORR\DOCUMENTS\D2\AO\COMPILE\CORE\TRUNK\AWESOM-O\D2DATA\ITEM\ITEMSET.CPP
/c /I"C:\Program Files\boost_1_41_0" /I"C:\Users\KOrr\Documents\D2\AO\compile\core\trunk\Awesom-O\\lua-5.1.4\include" /I"C:\Users\KOrr\Documents\D2\AO\compile\core\trunk\Awesom-O\\tolua++-1.0.93\src" /nologo /W1 /WX- /Od /Oi /Oy- /GL /D _MBCS /Gm- /EHa /MD /GS /Gy /fp:precise /Zc:wchar_t /Zc:forScope /Fo"Release\\" /Fd"Release\vc100.pdb" /Gd /TP /analyze- /errorReport:prompt C:\USERS\KORR\DOCUMENTS\D2\AO\COMPILE\CORE\TRUNK\AWESOM-O\D2DATA\ITEM\ITEMSET.CPP
^C:\USERS\KORR\DOCUMENTS\D2\AO\COMPILE\CORE\TRUNK\AWESOM-O\D2DATA\ITEM\SETITEM.CPP
/c /I"C:\Program Files\boost_1_41_0" /I"C:\Users\KOrr\Documents\D2\AO\compile\core\trunk\Awesom-O\\lua-5.1.4\include" /I"C:\Users\KOrr\Documents\D2\AO\compile\core\trunk\Awesom-O\\tolua++-1.0.93\src" /nologo /W1 /WX- /Od /Oi /Oy- /GL /D _MBCS /Gm- /EHa /MD /GS /Gy /fp:precise /Zc:wchar_t /Zc:forScope /Fo"Release\\" /Fd"Release\vc100.pdb" /Gd /TP /analyze- /errorReport:prompt C:\USERS\KORR\DOCUMENTS\D2\AO\COMPILE\CORE\TRUNK\AWESOM-O\D2DATA\ITEM\SETITEM.CPP
^C:\USERS\KORR\DOCUMENTS\D2\AO\COMPILE\CORE\TRUNK\AWESOM-O\D2DATA\ITEM\UNIQUEITEM.CPP
/c /I"C:\Program Files\boost_1_41_0" /I"C:\Users\KOrr\Documents\D2\AO\compile\core\trunk\Awesom-O\\lua-5.1.4\include" /I"C:\Users\KOrr\Documents\D2\AO\compile\core\trunk\Awesom-O\\tolua++-1.0.93\src" /nologo /W1 /WX- /Od /Oi /Oy- /GL /D _MBCS /Gm- /EHa /MD /GS /Gy /fp:precise /Zc:wchar_t /Zc:forScope /Fo"Release\\" /Fd"Release\vc100.pdb" /Gd /TP /analyze- /errorReport:prompt C:\USERS\KORR\DOCUMENTS\D2\AO\COMPILE\CORE\TRUNK\AWESOM-O\D2DATA\ITEM\UNIQUEITEM.CPP
^C:\USERS\KORR\DOCUMENTS\D2\AO\COMPILE\CORE\TRUNK\AWESOM-O\TELEPORTPATH.CPP
/c /I"C:\Program Files\boost_1_41_0" /I"C:\Users\KOrr\Documents\D2\AO\compile\core\trunk\Awesom-O\\lua-5.1.4\include" /I"C:\Users\KOrr\Documents\D2\AO\compile\core\trunk\Awesom-O\\tolua++-1.0.93\src" /nologo /W1 /WX- /Od /Oi /Oy- /GL /D _MBCS /Gm- /EHa /MD /GS /Gy /fp:precise /Zc:wchar_t /Zc:forScope /Fo"Release\\" /Fd"Release\vc100.pdb" /Gd /TP /analyze- /errorReport:prompt C:\USERS\KORR\DOCUMENTS\D2\AO\COMPILE\CORE\TRUNK\AWESOM-O\TELEPORTPATH.CPP
^C:\USERS\KORR\DOCUMENTS\D2\AO\COMPILE\CORE\TRUNK\AWESOM-O\WALKPATH.CPP
/c /I"C:\Program Files\boost_1_41_0" /I"C:\Users\KOrr\Documents\D2\AO\compile\core\trunk\Awesom-O\\lua-5.1.4\include" /I"C:\Users\KOrr\Documents\D2\AO\compile\core\trunk\Awesom-O\\tolua++-1.0.93\src" /nologo /W1 /WX- /Od /Oi /Oy- /GL /D _MBCS /Gm- /EHa /MD /GS /Gy /fp:precise /Zc:wchar_t /Zc:forScope /Fo"Release\\" /Fd"Release\vc100.pdb" /Gd /TP /analyze- /errorReport:prompt C:\USERS\KORR\DOCUMENTS\D2\AO\COMPILE\CORE\TRUNK\AWESOM-O\WALKPATH.CPP
^C:\USERS\KORR\DOCUMENTS\D2\AO\COMPILE\CORE\TRUNK\AWESOM-O\MAPHACK.CPP
/c /I"C:\Program Files\boost_1_41_0" /I"C:\Users\KOrr\Documents\D2\AO\compile\core\trunk\Awesom-O\\lua-5.1.4\include" /I"C:\Users\KOrr\Documents\D2\AO\compile\core\trunk\Awesom-O\\tolua++-1.0.93\src" /nologo /W1 /WX- /Od /Oi /Oy- /GL /D _MBCS /Gm- /EHa /MD /GS /Gy /fp:precise /Zc:wchar_t /Zc:forScope /Fo"Release\\" /Fd"Release\vc100.pdb" /Gd /TP /analyze- /errorReport:prompt C:\USERS\KORR\DOCUMENTS\D2\AO\COMPILE\CORE\TRUNK\AWESOM-O\MAPHACK.CPP
^C:\USERS\KORR\DOCUMENTS\D2\AO\COMPILE\CORE\TRUNK\AWESOM-O\COMMANDS.CPP
/c /I"C:\Program Files\boost_1_41_0" /I"C:\Users\KOrr\Documents\D2\AO\compile\core\trunk\Awesom-O\\lua-5.1.4\include" /I"C:\Users\KOrr\Documents\D2\AO\compile\core\trunk\Awesom-O\\tolua++-1.0.93\src" /nologo /W1 /WX- /Od /Oi /Oy- /GL /D _MBCS /Gm- /EHa /MD /GS /Gy /fp:precise /Zc:wchar_t /Zc:forScope /Fo"Release\\" /Fd"Release\vc100.pdb" /Gd /TP /analyze- /errorReport:prompt C:\USERS\KORR\DOCUMENTS\D2\AO\COMPILE\CORE\TRUNK\AWESOM-O\COMMANDS.CPP
^C:\USERS\KORR\DOCUMENTS\D2\AO\COMPILE\CORE\TRUNK\AWESOM-O\CUBE.CPP
/c /I"C:\Program Files\boost_1_41_0" /I"C:\Users\KOrr\Documents\D2\AO\compile\core\trunk\Awesom-O\\lua-5.1.4\include" /I"C:\Users\KOrr\Documents\D2\AO\compile\core\trunk\Awesom-O\\tolua++-1.0.93\src" /nologo /W1 /WX- /Od /Oi /Oy- /GL /D _MBCS /Gm- /EHa /MD /GS /Gy /fp:precise /Zc:wchar_t /Zc:forScope /Fo"Release\\" /Fd"Release\vc100.pdb" /Gd /TP /analyze- /errorReport:prompt C:\USERS\KORR\DOCUMENTS\D2\AO\COMPILE\CORE\TRUNK\AWESOM-O\CUBE.CPP
^C:\USERS\KORR\DOCUMENTS\D2\AO\COMPILE\CORE\TRUNK\AWESOM-O\FILES.CPP
/c /I"C:\Program Files\boost_1_41_0" /I"C:\Users\KOrr\Documents\D2\AO\compile\core\trunk\Awesom-O\\lua-5.1.4\include" /I"C:\Users\KOrr\Documents\D2\AO\compile\core\trunk\Awesom-O\\tolua++-1.0.93\src" /nologo /W1 /WX- /Od /Oi /Oy- /GL /D _MBCS /Gm- /EHa /MD /GS /Gy /fp:precise /Zc:wchar_t /Zc:forScope /Fo"Release\\" /Fd"Release\vc100.pdb" /Gd /TP /analyze- /errorReport:prompt C:\USERS\KORR\DOCUMENTS\D2\AO\COMPILE\CORE\TRUNK\AWESOM-O\FILES.CPP
^C:\USERS\KORR\DOCUMENTS\D2\AO\COMPILE\CORE\TRUNK\AWESOM-O\INVENTORY.CPP
/c /I"C:\Program Files\boost_1_41_0" /I"C:\Users\KOrr\Documents\D2\AO\compile\core\trunk\Awesom-O\\lua-5.1.4\include" /I"C:\Users\KOrr\Documents\D2\AO\compile\core\trunk\Awesom-O\\tolua++-1.0.93\src" /nologo /W1 /WX- /Od /Oi /Oy- /GL /D _MBCS /Gm- /EHa /MD /GS /Gy /fp:precise /Zc:wchar_t /Zc:forScope /Fo"Release\\" /Fd"Release\vc100.pdb" /Gd /TP /analyze- /errorReport:prompt C:\USERS\KORR\DOCUMENTS\D2\AO\COMPILE\CORE\TRUNK\AWESOM-O\INVENTORY.CPP
^C:\USERS\KORR\DOCUMENTS\D2\AO\COMPILE\CORE\TRUNK\AWESOM-O\ITEMS.CPP
/c /I"C:\Program Files\boost_1_41_0" /I"C:\Users\KOrr\Documents\D2\AO\compile\core\trunk\Awesom-O\\lua-5.1.4\include" /I"C:\Users\KOrr\Documents\D2\AO\compile\core\trunk\Awesom-O\\tolua++-1.0.93\src" /nologo /W1 /WX- /Od /Oi /Oy- /GL /D _MBCS /Gm- /EHa /MD /GS /Gy /fp:precise /Zc:wchar_t /Zc:forScope /Fo"Release\\" /Fd"Release\vc100.pdb" /Gd /TP /analyze- /errorReport:prompt C:\USERS\KORR\DOCUMENTS\D2\AO\COMPILE\CORE\TRUNK\AWESOM-O\ITEMS.CPP
^C:\USERS\KORR\DOCUMENTS\D2\AO\COMPILE\CORE\TRUNK\AWESOM-O\ME.CPP
/c /I"C:\Program Files\boost_1_41_0" /I"C:\Users\KOrr\Documents\D2\AO\compile\core\trunk\Awesom-O\\lua-5.1.4\include" /I"C:\Users\KOrr\Documents\D2\AO\compile\core\trunk\Awesom-O\\tolua++-1.0.93\src" /nologo /W1 /WX- /Od /Oi /Oy- /GL /D _MBCS /Gm- /EHa /MD /GS /Gy /fp:precise /Zc:wchar_t /Zc:forScope /Fo"Release\\" /Fd"Release\vc100.pdb" /Gd /TP /analyze- /errorReport:prompt C:\USERS\KORR\DOCUMENTS\D2\AO\COMPILE\CORE\TRUNK\AWESOM-O\ME.CPP
^C:\USERS\KORR\DOCUMENTS\D2\AO\COMPILE\CORE\TRUNK\AWESOM-O\MONSTERINFO.CPP
/c /I"C:\Program Files\boost_1_41_0" /I"C:\Users\KOrr\Documents\D2\AO\compile\core\trunk\Awesom-O\\lua-5.1.4\include" /I"C:\Users\KOrr\Documents\D2\AO\compile\core\trunk\Awesom-O\\tolua++-1.0.93\src" /nologo /W1 /WX- /Od /Oi /Oy- /GL /D _MBCS /Gm- /EHa /MD /GS /Gy /fp:precise /Zc:wchar_t /Zc:forScope /Fo"Release\\" /Fd"Release\vc100.pdb" /Gd /TP /analyze- /errorReport:prompt C:\USERS\KORR\DOCUMENTS\D2\AO\COMPILE\CORE\TRUNK\AWESOM-O\MONSTERINFO.CPP
^C:\USERS\KORR\DOCUMENTS\D2\AO\COMPILE\CORE\TRUNK\AWESOM-O\NPCS.CPP
/c /I"C:\Program Files\boost_1_41_0" /I"C:\Users\KOrr\Documents\D2\AO\compile\core\trunk\Awesom-O\\lua-5.1.4\include" /I"C:\Users\KOrr\Documents\D2\AO\compile\core\trunk\Awesom-O\\tolua++-1.0.93\src" /nologo /W1 /WX- /Od /Oi /Oy- /GL /D _MBCS /Gm- /EHa /MD /GS /Gy /fp:precise /Zc:wchar_t /Zc:forScope /Fo"Release\\" /Fd"Release\vc100.pdb" /Gd /TP /analyze- /errorReport:prompt C:\USERS\KORR\DOCUMENTS\D2\AO\COMPILE\CORE\TRUNK\AWESOM-O\NPCS.CPP
^C:\USERS\KORR\DOCUMENTS\D2\AO\COMPILE\CORE\TRUNK\AWESOM-O\OBJECTS.CPP
/c /I"C:\Program Files\boost_1_41_0" /I"C:\Users\KOrr\Documents\D2\AO\compile\core\trunk\Awesom-O\\lua-5.1.4\include" /I"C:\Users\KOrr\Documents\D2\AO\compile\core\trunk\Awesom-O\\tolua++-1.0.93\src" /nologo /W1 /WX- /Od /Oi /Oy- /GL /D _MBCS /Gm- /EHa /MD /GS /Gy /fp:precise /Zc:wchar_t /Zc:forScope /Fo"Release\\" /Fd"Release\vc100.pdb" /Gd /TP /analyze- /errorReport:prompt C:\USERS\KORR\DOCUMENTS\D2\AO\COMPILE\CORE\TRUNK\AWESOM-O\OBJECTS.CPP
^C:\USERS\KORR\DOCUMENTS\D2\AO\COMPILE\CORE\TRUNK\AWESOM-O\PETS.CPP
/c /I"C:\Program Files\boost_1_41_0" /I"C:\Users\KOrr\Documents\D2\AO\compile\core\trunk\Awesom-O\\lua-5.1.4\include" /I"C:\Users\KOrr\Documents\D2\AO\compile\core\trunk\Awesom-O\\tolua++-1.0.93\src" /nologo /W1 /WX- /Od /Oi /Oy- /GL /D _MBCS /Gm- /EHa /MD /GS /Gy /fp:precise /Zc:wchar_t /Zc:forScope /Fo"Release\\" /Fd"Release\vc100.pdb" /Gd /TP /analyze- /errorReport:prompt C:\USERS\KORR\DOCUMENTS\D2\AO\COMPILE\CORE\TRUNK\AWESOM-O\PETS.CPP
^C:\USERS\KORR\DOCUMENTS\D2\AO\COMPILE\CORE\TRUNK\AWESOM-O\PICKIT.CPP
/c /I"C:\Program Files\boost_1_41_0" /I"C:\Users\KOrr\Documents\D2\AO\compile\core\trunk\Awesom-O\\lua-5.1.4\include" /I"C:\Users\KOrr\Documents\D2\AO\compile\core\trunk\Awesom-O\\tolua++-1.0.93\src" /nologo /W1 /WX- /Od /Oi /Oy- /GL /D _MBCS /Gm- /EHa /MD /GS /Gy /fp:precise /Zc:wchar_t /Zc:forScope /Fo"Release\\" /Fd"Release\vc100.pdb" /Gd /TP /analyze- /errorReport:prompt C:\USERS\KORR\DOCUMENTS\D2\AO\COMPILE\CORE\TRUNK\AWESOM-O\PICKIT.CPP
^C:\USERS\KORR\DOCUMENTS\D2\AO\COMPILE\CORE\TRUNK\AWESOM-O\PLAYERS.CPP
/c /I"C:\Program Files\boost_1_41_0" /I"C:\Users\KOrr\Documents\D2\AO\compile\core\trunk\Awesom-O\\lua-5.1.4\include" /I"C:\Users\KOrr\Documents\D2\AO\compile\core\trunk\Awesom-O\\tolua++-1.0.93\src" /nologo /W1 /WX- /Od /Oi /Oy- /GL /D _MBCS /Gm- /EHa /MD /GS /Gy /fp:precise /Zc:wchar_t /Zc:forScope /Fo"Release\\" /Fd"Release\vc100.pdb" /Gd /TP /analyze- /errorReport:prompt C:\USERS\KORR\DOCUMENTS\D2\AO\COMPILE\CORE\TRUNK\AWESOM-O\PLAYERS.CPP
^C:\USERS\KORR\DOCUMENTS\D2\AO\COMPILE\CORE\TRUNK\AWESOM-O\SKILLS.CPP
/c /I"C:\Program Files\boost_1_41_0" /I"C:\Users\KOrr\Documents\D2\AO\compile\core\trunk\Awesom-O\\lua-5.1.4\include" /I"C:\Users\KOrr\Documents\D2\AO\compile\core\trunk\Awesom-O\\tolua++-1.0.93\src" /nologo /W1 /WX- /Od /Oi /Oy- /GL /D _MBCS /Gm- /EHa /MD /GS /Gy /fp:precise /Zc:wchar_t /Zc:forScope /Fo"Release\\" /Fd"Release\vc100.pdb" /Gd /TP /analyze- /errorReport:prompt C:\USERS\KORR\DOCUMENTS\D2\AO\COMPILE\CORE\TRUNK\AWESOM-O\SKILLS.CPP
^C:\USERS\KORR\DOCUMENTS\D2\AO\COMPILE\CORE\TRUNK\AWESOM-O\STASH.CPP
/c /I"C:\Program Files\boost_1_41_0" /I"C:\Users\KOrr\Documents\D2\AO\compile\core\trunk\Awesom-O\\lua-5.1.4\include" /I"C:\Users\KOrr\Documents\D2\AO\compile\core\trunk\Awesom-O\\tolua++-1.0.93\src" /nologo /W1 /WX- /Od /Oi /Oy- /GL /D _MBCS /Gm- /EHa /MD /GS /Gy /fp:precise /Zc:wchar_t /Zc:forScope /Fo"Release\\" /Fd"Release\vc100.pdb" /Gd /TP /analyze- /errorReport:prompt C:\USERS\KORR\DOCUMENTS\D2\AO\COMPILE\CORE\TRUNK\AWESOM-O\STASH.CPP
^C:\USERS\KORR\DOCUMENTS\D2\AO\COMPILE\CORE\TRUNK\AWESOM-O\STATES.CPP
/c /I"C:\Program Files\boost_1_41_0" /I"C:\Users\KOrr\Documents\D2\AO\compile\core\trunk\Awesom-O\\lua-5.1.4\include" /I"C:\Users\KOrr\Documents\D2\AO\compile\core\trunk\Awesom-O\\tolua++-1.0.93\src" /nologo /W1 /WX- /Od /Oi /Oy- /GL /D _MBCS /Gm- /EHa /MD /GS /Gy /fp:precise /Zc:wchar_t /Zc:forScope /Fo"Release\\" /Fd"Release\vc100.pdb" /Gd /TP /analyze- /errorReport:prompt C:\USERS\KORR\DOCUMENTS\D2\AO\COMPILE\CORE\TRUNK\AWESOM-O\STATES.CPP
^C:\USERS\KORR\DOCUMENTS\D2\AO\COMPILE\CORE\TRUNK\AWESOM-O\STORE.CPP
/c /I"C:\Program Files\boost_1_41_0" /I"C:\Users\KOrr\Documents\D2\AO\compile\core\trunk\Awesom-O\\lua-5.1.4\include" /I"C:\Users\KOrr\Documents\D2\AO\compile\core\trunk\Awesom-O\\tolua++-1.0.93\src" /nologo /W1 /WX- /Od /Oi /Oy- /GL /D _MBCS /Gm- /EHa /MD /GS /Gy /fp:precise /Zc:wchar_t /Zc:forScope /Fo"Release\\" /Fd"Release\vc100.pdb" /Gd /TP /analyze- /errorReport:prompt C:\USERS\KORR\DOCUMENTS\D2\AO\COMPILE\CORE\TRUNK\AWESOM-O\STORE.CPP
^C:\USERS\KORR\DOCUMENTS\D2\AO\COMPILE\CORE\TRUNK\AWESOM-O\WARPS.CPP
/c /I"C:\Program Files\boost_1_41_0" /I"C:\Users\KOrr\Documents\D2\AO\compile\core\trunk\Awesom-O\\lua-5.1.4\include" /I"C:\Users\KOrr\Documents\D2\AO\compile\core\trunk\Awesom-O\\tolua++-1.0.93\src" /nologo /W1 /WX- /Od /Oi /Oy- /GL /D _MBCS /Gm- /EHa /MD /GS /Gy /fp:precise /Zc:wchar_t /Zc:forScope /Fo"Release\\" /Fd"Release\vc100.pdb" /Gd /TP /analyze- /errorReport:prompt C:\USERS\KORR\DOCUMENTS\D2\AO\COMPILE\CORE\TRUNK\AWESOM-O\WARPS.CPP
^C:\USERS\KORR\DOCUMENTS\D2\AO\COMPILE\CORE\TRUNK\AWESOM-O\BITSREADER.CPP
/c /I"C:\Program Files\boost_1_41_0" /I"C:\Users\KOrr\Documents\D2\AO\compile\core\trunk\Awesom-O\\lua-5.1.4\include" /I"C:\Users\KOrr\Documents\D2\AO\compile\core\trunk\Awesom-O\\tolua++-1.0.93\src" /nologo /W1 /WX- /Od /Oi /Oy- /GL /D _MBCS /Gm- /EHa /MD /GS /Gy /fp:precise /Zc:wchar_t /Zc:forScope /Fo"Release\\" /Fd"Release\vc100.pdb" /Gd /TP /analyze- /errorReport:prompt C:\USERS\KORR\DOCUMENTS\D2\AO\COMPILE\CORE\TRUNK\AWESOM-O\BITSREADER.CPP
^C:\USERS\KORR\DOCUMENTS\D2\AO\COMPILE\CORE\TRUNK\AWESOM-O\DIJKSTRA.CPP
/c /I"C:\Program Files\boost_1_41_0" /I"C:\Users\KOrr\Documents\D2\AO\compile\core\trunk\Awesom-O\\lua-5.1.4\include" /I"C:\Users\KOrr\Documents\D2\AO\compile\core\trunk\Awesom-O\\tolua++-1.0.93\src" /nologo /W1 /WX- /Od /Oi /Oy- /GL /D _MBCS /Gm- /EHa /MD /GS /Gy /fp:precise /Zc:wchar_t /Zc:forScope /Fo"Release\\" /Fd"Release\vc100.pdb" /Gd /TP /analyze- /errorReport:prompt C:\USERS\KORR\DOCUMENTS\D2\AO\COMPILE\CORE\TRUNK\AWESOM-O\DIJKSTRA.CPP
^C:\USERS\KORR\DOCUMENTS\D2\AO\COMPILE\CORE\TRUNK\AWESOM-O\TOLUA++-1.0.93\SRC\TOLUA_EVENT.C
/c /I"C:\Program Files\boost_1_41_0" /I"C:\Users\KOrr\Documents\D2\AO\compile\core\trunk\Awesom-O\\lua-5.1.4\include" /I"C:\Users\KOrr\Documents\D2\AO\compile\core\trunk\Awesom-O\\tolua++-1.0.93\src" /nologo /W1 /WX- /Od /Oi /Oy- /GL /D _MBCS /Gm- /EHa /MD /GS /Gy /fp:precise /Zc:wchar_t /Zc:forScope /Fo"Release\\" /Fd"Release\vc100.pdb" /Gd /TC /analyze- /errorReport:prompt C:\USERS\KORR\DOCUMENTS\D2\AO\COMPILE\CORE\TRUNK\AWESOM-O\TOLUA++-1.0.93\SRC\TOLUA_EVENT.C
^C:\USERS\KORR\DOCUMENTS\D2\AO\COMPILE\CORE\TRUNK\AWESOM-O\TOLUA++-1.0.93\SRC\TOLUA_IS.C
/c /I"C:\Program Files\boost_1_41_0" /I"C:\Users\KOrr\Documents\D2\AO\compile\core\trunk\Awesom-O\\lua-5.1.4\include" /I"C:\Users\KOrr\Documents\D2\AO\compile\core\trunk\Awesom-O\\tolua++-1.0.93\src" /nologo /W1 /WX- /Od /Oi /Oy- /GL /D _MBCS /Gm- /EHa /MD /GS /Gy /fp:precise /Zc:wchar_t /Zc:forScope /Fo"Release\\" /Fd"Release\vc100.pdb" /Gd /TC /analyze- /errorReport:prompt C:\USERS\KORR\DOCUMENTS\D2\AO\COMPILE\CORE\TRUNK\AWESOM-O\TOLUA++-1.0.93\SRC\TOLUA_IS.C
^C:\USERS\KORR\DOCUMENTS\D2\AO\COMPILE\CORE\TRUNK\AWESOM-O\TOLUA++-1.0.93\SRC\TOLUA_MAP.C
/c /I"C:\Program Files\boost_1_41_0" /I"C:\Users\KOrr\Documents\D2\AO\compile\core\trunk\Awesom-O\\lua-5.1.4\include" /I"C:\Users\KOrr\Documents\D2\AO\compile\core\trunk\Awesom-O\\tolua++-1.0.93\src" /nologo /W1 /WX- /Od /Oi /Oy- /GL /D _MBCS /Gm- /EHa /MD /GS /Gy /fp:precise /Zc:wchar_t /Zc:forScope /Fo"Release\\" /Fd"Release\vc100.pdb" /Gd /TC /analyze- /errorReport:prompt C:\USERS\KORR\DOCUMENTS\D2\AO\COMPILE\CORE\TRUNK\AWESOM-O\TOLUA++-1.0.93\SRC\TOLUA_MAP.C
^C:\USERS\KORR\DOCUMENTS\D2\AO\COMPILE\CORE\TRUNK\AWESOM-O\TOLUA++-1.0.93\SRC\TOLUA_PUSH.C
/c /I"C:\Program Files\boost_1_41_0" /I"C:\Users\KOrr\Documents\D2\AO\compile\core\trunk\Awesom-O\\lua-5.1.4\include" /I"C:\Users\KOrr\Documents\D2\AO\compile\core\trunk\Awesom-O\\tolua++-1.0.93\src" /nologo /W1 /WX- /Od /Oi /Oy- /GL /D _MBCS /Gm- /EHa /MD /GS /Gy /fp:precise /Zc:wchar_t /Zc:forScope /Fo"Release\\" /Fd"Release\vc100.pdb" /Gd /TC /analyze- /errorReport:prompt C:\USERS\KORR\DOCUMENTS\D2\AO\COMPILE\CORE\TRUNK\AWESOM-O\TOLUA++-1.0.93\SRC\TOLUA_PUSH.C
^C:\USERS\KORR\DOCUMENTS\D2\AO\COMPILE\CORE\TRUNK\AWESOM-O\TOLUA++-1.0.93\SRC\TOLUA_TO.C
/c /I"C:\Program Files\boost_1_41_0" /I"C:\Users\KOrr\Documents\D2\AO\compile\core\trunk\Awesom-O\\lua-5.1.4\include" /I"C:\Users\KOrr\Documents\D2\AO\compile\core\trunk\Awesom-O\\tolua++-1.0.93\src" /nologo /W1 /WX- /Od /Oi /Oy- /GL /D _MBCS /Gm- /EHa /MD /GS /Gy /fp:precise /Zc:wchar_t /Zc:forScope /Fo"Release\\" /Fd"Release\vc100.pdb" /Gd /TC /analyze- /errorReport:prompt C:\USERS\KORR\DOCUMENTS\D2\AO\COMPILE\CORE\TRUNK\AWESOM-O\TOLUA++-1.0.93\SRC\TOLUA_TO.C
^C:\USERS\KORR\DOCUMENTS\D2\AO\COMPILE\CORE\TRUNK\AWESOM-O\COLLISIONMAP.CPP
/c /I"C:\Program Files\boost_1_41_0" /I"C:\Users\KOrr\Documents\D2\AO\compile\core\trunk\Awesom-O\\lua-5.1.4\include" /I"C:\Users\KOrr\Documents\D2\AO\compile\core\trunk\Awesom-O\\tolua++-1.0.93\src" /nologo /W1 /WX- /Od /Oi /Oy- /GL /D _MBCS /Gm- /EHa /MD /GS /Gy /fp:precise /Zc:wchar_t /Zc:forScope /Fo"Release\\" /Fd"Release\vc100.pdb" /Gd /TP /analyze- /errorReport:prompt C:\USERS\KORR\DOCUMENTS\D2\AO\COMPILE\CORE\TRUNK\AWESOM-O\COLLISIONMAP.CPP
^C:\USERS\KORR\DOCUMENTS\D2\AO\COMPILE\CORE\TRUNK\AWESOM-O\D2MAP.CPP
/c /I"C:\Program Files\boost_1_41_0" /I"C:\Users\KOrr\Documents\D2\AO\compile\core\trunk\Awesom-O\\lua-5.1.4\include" /I"C:\Users\KOrr\Documents\D2\AO\compile\core\trunk\Awesom-O\\tolua++-1.0.93\src" /nologo /W1 /WX- /Od /Oi /Oy- /GL /D _MBCS /Gm- /EHa /MD /GS /Gy /fp:precise /Zc:wchar_t /Zc:forScope /Fo"Release\\" /Fd"Release\vc100.pdb" /Gd /TP /analyze- /errorReport:prompt C:\USERS\KORR\DOCUMENTS\D2\AO\COMPILE\CORE\TRUNK\AWESOM-O\D2MAP.CPP
^C:\USERS\KORR\DOCUMENTS\D2\AO\COMPILE\CORE\TRUNK\AWESOM-O\MAPS.CPP
/c /I"C:\Program Files\boost_1_41_0" /I"C:\Users\KOrr\Documents\D2\AO\compile\core\trunk\Awesom-O\\lua-5.1.4\include" /I"C:\Users\KOrr\Documents\D2\AO\compile\core\trunk\Awesom-O\\tolua++-1.0.93\src" /nologo /W1 /WX- /Od /Oi /Oy- /GL /D _MBCS /Gm- /EHa /MD /GS /Gy /fp:precise /Zc:wchar_t /Zc:forScope /Fo"Release\\" /Fd"Release\vc100.pdb" /Gd /TP /analyze- /errorReport:prompt C:\USERS\KORR\DOCUMENTS\D2\AO\COMPILE\CORE\TRUNK\AWESOM-O\MAPS.CPP
^C:\USERS\KORR\DOCUMENTS\D2\AO\COMPILE\CORE\TRUNK\AWESOM-O\OFFSET.CPP
/c /I"C:\Program Files\boost_1_41_0" /I"C:\Users\KOrr\Documents\D2\AO\compile\core\trunk\Awesom-O\\lua-5.1.4\include" /I"C:\Users\KOrr\Documents\D2\AO\compile\core\trunk\Awesom-O\\tolua++-1.0.93\src" /nologo /W1 /WX- /Od /Oi /Oy- /GL /D _MBCS /Gm- /EHa /MD /GS /Gy /fp:precise /Zc:wchar_t /Zc:forScope /Fo"Release\\" /Fd"Release\vc100.pdb" /Gd /TP /analyze- /errorReport:prompt C:\USERS\KORR\DOCUMENTS\D2\AO\COMPILE\CORE\TRUNK\AWESOM-O\OFFSET.CPP
^C:\USERS\KORR\DOCUMENTS\D2\AO\COMPILE\CORE\TRUNK\AWESOM-O\MAIN.CPP
/c /I"C:\Program Files\boost_1_41_0" /I"C:\Users\KOrr\Documents\D2\AO\compile\core\trunk\Awesom-O\\lua-5.1.4\include" /I"C:\Users\KOrr\Documents\D2\AO\compile\core\trunk\Awesom-O\\tolua++-1.0.93\src" /nologo /W1 /WX- /Od /Oi /Oy- /GL /D _MBCS /Gm- /EHa /MD /GS /Gy /fp:precise /Zc:wchar_t /Zc:forScope /Fo"Release\\" /Fd"Release\vc100.pdb" /Gd /TP /analyze- /errorReport:prompt C:\USERS\KORR\DOCUMENTS\D2\AO\COMPILE\CORE\TRUNK\AWESOM-O\MAIN.CPP
^C:\USERS\KORR\DOCUMENTS\D2\AO\COMPILE\CORE\TRUNK\AWESOM-O\ONRELAYDATATOCLIENT.CPP
/c /I"C:\Program Files\boost_1_41_0" /I"C:\Users\KOrr\Documents\D2\AO\compile\core\trunk\Awesom-O\\lua-5.1.4\include" /I"C:\Users\KOrr\Documents\D2\AO\compile\core\trunk\Awesom-O\\tolua++-1.0.93\src" /nologo /W1 /WX- /Od /Oi /Oy- /GL /D _MBCS /Gm- /EHa /MD /GS /Gy /fp:precise /Zc:wchar_t /Zc:forScope /Fo"Release\\" /Fd"Release\vc100.pdb" /Gd /TP /analyze- /errorReport:prompt C:\USERS\KORR\DOCUMENTS\D2\AO\COMPILE\CORE\TRUNK\AWESOM-O\ONRELAYDATATOCLIENT.CPP
^C:\USERS\KORR\DOCUMENTS\D2\AO\COMPILE\CORE\TRUNK\AWESOM-O\AWESOMO.CPP
/c /I"C:\Program Files\boost_1_41_0" /I"C:\Users\KOrr\Documents\D2\AO\compile\core\trunk\Awesom-O\\lua-5.1.4\include" /I"C:\Users\KOrr\Documents\D2\AO\compile\core\trunk\Awesom-O\\tolua++-1.0.93\src" /nologo /W1 /WX- /Od /Oi /Oy- /GL /D _MBCS /Gm- /EHa /MD /GS /Gy /fp:precise /Zc:wchar_t /Zc:forScope /Fo"Release\\" /Fd"Release\vc100.pdb" /Gd /TP /analyze- /errorReport:prompt C:\USERS\KORR\DOCUMENTS\D2\AO\COMPILE\CORE\TRUNK\AWESOM-O\AWESOMO.CPP
^C:\USERS\KORR\DOCUMENTS\D2\AO\COMPILE\CORE\TRUNK\AWESOM-O\SERVER.CPP
/c /I"C:\Program Files\boost_1_41_0" /I"C:\Users\KOrr\Documents\D2\AO\compile\core\trunk\Awesom-O\\lua-5.1.4\include" /I"C:\Users\KOrr\Documents\D2\AO\compile\core\trunk\Awesom-O\\tolua++-1.0.93\src" /nologo /W1 /WX- /Od /Oi /Oy- /GL /D _MBCS /Gm- /EHa /MD /GS /Gy /fp:precise /Zc:wchar_t /Zc:forScope /Fo"Release\\" /Fd"Release\vc100.pdb" /Gd /TP /analyze- /errorReport:prompt C:\USERS\KORR\DOCUMENTS\D2\AO\COMPILE\CORE\TRUNK\AWESOM-O\SERVER.CPP
